*** Life<Cell> 18x5 ***

Generation = 0, Population = 18.
-----
-0---
-----
-----
-000-
0--00
---00
0--00
----0
0---0
-----
---0-
-0---
---0-
-----
-----
-----
-----

Generation = 26, Population = 26.
....-
.**..
.**..
*..*.
*..*.
.*.*.
..*..
.....
....-
.....
..*..
.**..
....-
*.*..
***1.
*.1..
.**..
.**..

*** Life<Cell> 14x1 ***

Generation = 0, Population = 11.
0
0
0
0
0
0
0
0
0
0
-
-
0
-

*** Life<Cell> 8x1 ***

Generation = 0, Population = 5.
0
-
0
-
-
0
0
0

Generation = 10, Population = 1.
.
.
.
.
-
.
-
1

Generation = 20, Population = 1.
.
.
.
.
-
.
-
1

Generation = 30, Population = 1.
.
.
.
.
-
.
-
1

Generation = 40, Population = 1.
.
.
.
.
-
.
-
1

Generation = 50, Population = 1.
.
.
.
.
-
.
-
1

Generation = 60, Population = 1.
.
.
.
.
-
.
-
1

Generation = 70, Population = 1.
.
.
.
.
-
.
-
1

Generation = 80, Population = 1.
.
.
.
.
-
.
-
1

Generation = 90, Population = 1.
.
.
.
.
-
.
-
1

*** Life<Cell> 10x10 ***

Generation = 0, Population = 29.
0------0--
0-----0--0
----0-0---
---------0
0--00---0-
0-----0---
-----0-000
---0000-0-
-00--0----
-0----0-0-

Generation = 5, Population = 48.
.-.-10-0--
.--0*-1*.1
00-*-*..01
*0-*0-*11-
*.0-*--*-0
*--*01100.
.11-1-.-**
---.-1.*--
.-.1-.0-1.
1.*---1-10

Generation = 10, Population = 40.
*.*0..-***
..1..0*...
*1-*1.*.-*
..0.....-0
*.--.-..-0
*-*.-1.*-.
*..*.....*
1-*..***.*
.1*1..-1.*
1..1--.-*.

Generation = 15, Population = 36.
.*....1.*.
*.*....*.*
.*1.....**
.*1..***--
..11.*****
.-..-1*.**
.......**.
.*.*...*..
*..-*.-...
1*..--.-..

Generation = 20, Population = 26.
..*..***..
.*.**....*
....*..*.*
.**..*..*-
.****.*...
.-**.*....
..........
..........
...**.-...
1...--.-..

Generation = 25, Population = 1.
..........
..........
..........
.........-
..........
.-........
..........
..........
......-...
-...1-.-..

Generation = 30, Population = 1.
..........
..........
..........
.........-
..........
.-........
..........
..........
......-...
-...-0.-..

Generation = 35, Population = 1.
..........
..........
..........
.........-
..........
.-........
..........
..........
......-...
-...1-.-..

Generation = 40, Population = 1.
..........
..........
..........
.........-
..........
.-........
..........
..........
......-...
-...-0.-..

Generation = 45, Population = 1.
..........
..........
..........
.........-
..........
.-........
..........
..........
......-...
-...1-.-..

Generation = 50, Population = 1.
..........
..........
..........
.........-
..........
.-........
..........
..........
......-...
-...-0.-..

Generation = 55, Population = 1.
..........
..........
..........
.........-
..........
.-........
..........
..........
......-...
-...1-.-..

Generation = 60, Population = 1.
..........
..........
..........
.........-
..........
.-........
..........
..........
......-...
-...-0.-..

*** Life<Cell> 12x16 ***

Generation = 0, Population = 23.
0---------------
------0--------0
-----0-------0-0
-------0---0--0-
---0-0----------
-0---0-----0--0-
---------0------
0---------------
--00-0----0-----
----------------
------0---------
----0-----------

Generation = 48, Population = 39.
.......-****....
......*.....*...
.......**...*...
.......*.***....
..........*.....
......*..**.....
.....**..***....
...**.*..***....
...**.....**....
...**....*......
.........*.*....
..........**....

*** Life<Cell> 13x16 ***

Generation = 0, Population = 67.
-0-0-0--000000-0
-000--0----0----
0-0--------000--
---0--0--0-----0
--00----------0-
0-0---0-----00-0
---00-0-0----000
------00--------
--0------0-0--0-
--------000-0---
-0----00-----00-
----0---00-0--0-
0---000-0-00----

Generation = 16, Population = 65.
..**-.*1*0......
*-.-11..***1*...
**.*...-*1*.*..-
*-........*-...*
1..*-..-..*..-**
.**..--.**....**
.*....1-*...-...
.-**....-..-....
.*.*...-......1.
....1..*...**-*.
...1*0**....*.**
.-.1-***....*.*.
...1*-*...--....

Generation = 32, Population = 32.
.........-......
..**............
.....**.....***-
..*.........**..
*.*.*.**....**..
.*.**..*....**..
....*.*....***..
.....*......**..
................
................
................
.-..............
..........1-....

Generation = 48, Population = 14.
.........-......
................
................
..**............
..**............
................
...........***..
....**..........
...*..*.........
....**..........
................
.-..............
..........1-....

Generation = 64, Population = 14.
.........-......
................
................
..**............
..**............
................
...........***..
....**..........
...*..*.........
....**..........
................
.-..............
..........1-....

*** Life<Cell> 9x18 ***

Generation = 0, Population = 3.
------------------
---------------0--
-0----------------
------------------
------------------
------------------
------------------
------------------
----------0-------

*** Life<Cell> 1x2 ***

Generation = 0, Population = 1.
-0

Generation = 43, Population = 1.
0-

*** Life<Cell> 15x20 ***

Generation = 0, Population = 25.
-------------0------
------------0-0-----
----0--------0------
--------------------
--------------------
---------------0----
---------------0----
------------------0-
-----0-------------0
---0--0---------0---
----0--0------0-0---
----------0---------
--------0--0--------
-0------00----------
---------------0--0-

Generation = 43, Population = 58.
.....*****..1.......
.....*...*..-.......
**....****.-....*...
..*....*.......*.*..
**.........-..*...*.
...........-...*.*..
................*...
..*.................
.**...*.*...........
**...****...........
.**..*.*............
....*..****.........
..-..***.***........
.....**.*..*........
.........**.........

*** Life<Cell> 20x18 ***

Generation = 0, Population = 29.
-0-----------0----
0----0------------
----------------0-
-00--------0------
0------0---0------
---------0--------
------------------
0-----------------
-0-------0--------
------------------
--------------0---
--0---------------
----------0-------
---0-0-----0------
------------------
------------------
------------0---0-
--------0--0------
--00--------------
--------------0-0-

Generation = 8, Population = 147.
0.--1----0-..-0-*.
-.1..01-0--.1-0--0
11-01----10...--0-
-.1.-.*.1*0*1*-100
-1*--*-*0-0-0.-.--
.--*.*-.--1--*---1
*---.1-10.0-0-*0--
.*.--.-01*1*1-----
*0---1-1--.*-*--*1
0--*-*---.-.0-----
--11--10--.--0*-0-
-10.0**-0-.01-1-1-
-*.1---1-1--------
-.1.1--*.0*0-1---*
--*-.-----0--0*10-
*.-1----1-10001-.1
---1---**-.-*100.1
00-*****0.-.-1.*.-
..*..-10-0.-*-1-.0
-01-0-1-0-.*-**--1

Generation = 16, Population = 125.
-.-****111.******.
-.*...*.1*-..*.*.-
..-*....-.-*...-..
-........***..0.-*
1.....-***1*.*-.-*
..0...**..-1-.-**.
**.**.-*0.-0**....
...-*..**...1....*
.0.**.-*1-..*.-0..
11*.1..-1.-.*..**-
.-*.-*.-...-...--.
-1*.1..-***1.*.*..
.*......-.*-*--.-.
..*.-...*-..0.--*.
......*1*--*.....-
.*..*1-**-.-1..**.
.-..0*-.**.1.**1..
......*.-.-...*...
.*...-.-1-.1*-.**.
-.*.-..*****.****.

Generation = 24, Population = 103.
-.-....-..*.....**
-........*.*..*..*
..-.....1.....*..*
-..*............-*
-.**..*****..*-.-.
..***........*....
.**..*..-.*.**..*.
.****....*..*.***.
....***..0**.*..*.
.**.*........*.**.
****....*....*....
-1*....1*....*.**.
..*.....*.**..1*-.
..**-....-....*...
.....*...-.*...**1
...*.*....*-*..**.
.-..*....**.***-..
........*.**.**...
.........**..**...
-...-....*........

Generation = 32, Population = 58.
-.-....-......***.
-.............*..*
..-............*..
-..*.*........**..
-..*.*..........-.
....*..........*..
...............**.
.............*.**.
.........**.*.....
......*.*.......*.
.....*.*****.....*
1......**.*****...
....**.*.*..*.*...
....**.*.****...**
.......*.-...*.*..
..................
.-.............-..
..................
..................
-...-.............

Generation = 40, Population = 46.
-.-....-......**..
-............*.*..
..-..........***..
-............**.**
-............**..*
.................*
............*...*.
...............*..
.............**...
....**............
.....*......*.*...
-..............*..
...**.......*.*...
.............****.
...............*.*
........***...*..*
.-.............**.
........*.*.......
.........*........
-...-.............

*** Life<Cell> 16x3 ***

Generation = 0, Population = 26.
0-0
000
000
-00
---
0-0
0-0
--0
---
00-
-00
--0
-00
00-
-0-
-0-

*** Life<Cell> 2x17 ***

Generation = 0, Population = 16.
00--0------0---0-
0-000-00-00-0--00

Generation = 22, Population = 1.
-....1-...-----.-
.......--.-.-.-.-

*** Life<Cell> 14x3 ***

Generation = 0, Population = 24.
00-
-00
-0-
0-0
00-
--0
00-
0--
00-
00-
00-
000
-0-
0--

Generation = 12, Population = 13.
-*-
*.*
-*-
...
0..
*--
*.*
..-
*.*
*..
.**
...
-.-
.--

Generation = 24, Population = 4.
-*-
*.*
-*-
...
...
...
...
...
...
...
...
...
-.-
.--

Generation = 36, Population = 4.
-*-
*.*
-*-
...
...
...
...
...
...
...
...
...
-.-
.--

Generation = 48, Population = 4.
-*-
*.*
-*-
...
...
...
...
...
...
...
...
...
-.-
.--

*** Life<Cell> 6x16 ***

Generation = 0, Population = 61.
--000000-00-0-00
0000-0-----00-0-
-000--0-00-00-00
000--0---0-0000-
--000-000-00000-
000-0-00000-0-00

Generation = 24, Population = 12.
.-...**.-*..*.-.
....*....*..*.-.
.........*.*....
....*-.........-
..---..**......-
................

Generation = 48, Population = 0.
.-............-.
..............-.
................
.....-.........-
..---..........-
................

*** Life<Cell> 19x5 ***

Generation = 0, Population = 52.
---0-
00-00
00000
0000-
0---0
00-0-
-0-00
--000
--000
-0-00
--00-
00-0-
-00--
000-0
0-00-
0----
-----
----0
00000

Generation = 15, Population = 21.
....1
.1..-
*..-.
*....
*0.-.
*....
*.*.1
*..*.
*..*.
**-..
**...
*....
.....
-*...
0...-
...-.
.....
...-.
...-.

*** Life<Cell> 19x5 ***

Generation = 0, Population = 16.
-----
-0---
-0---
0----
----0
--00-
-----
-----
-----
-0---
---0-
0----
--00-
-000-
----0
-----
0----
-----
-----

Generation = 7, Population = 45.
01110
-1..0
0.-.*
-1--*
*-*-1
*.1.*
--1.*
--0--
--*-*
1-*11
-*1.*
-1---
.--11
1.-.-
0-1*-
.-1-*
0*--1
0.-1-
-00--

Generation = 14, Population = 23.
...-1
**...
0.1..
.1*..
.*..*
..-.*
.-...
*.1*1
.*.-.
1..*.
-....
..-..
*....
*.*.-
--*.-
...-.
0..-.
..*..
-...-

Generation = 21, Population = 26.
..*1*
**...
*...*
****.
.**..
..1..
**.*.
.*..*
....*
-..*.
0....
..-..
.....
**..-
**..-
...-.
-..-.
.....
-...-

Generation = 28, Population = 16.
.....
.....
..*..
.*.*.
**.**
.*.**
..**.
.....
.....
-....
-....
..-..
.....
**..-
**..-
...-.
-..-.
.....
-...-

Generation = 35, Population = 20.
.***.
*...*
...**
**..*
.**..
....*
....*
...**
.....
-....
-....
..-..
.....
**..-
**..-
...-.
-..-.
.....
-...-

Generation = 42, Population = 14.
...*.
..*.*
.**.*
.....
..**.
..*..
..*..
.....
.....
-....
-....
..-..
.....
**..-
**..-
...-.
-..-.
.....
-...-

Generation = 49, Population = 13.
...*.
.***.
****.
*....
.....
.....
.....
.....
.....
-....
-....
..-..
.....
**..-
**..-
...-.
-..-.
.....
-...-

*** Life<Cell> 3x11 ***

Generation = 0, Population = 22.
--00-00-000
-0-000--000
00-00-0-000

Generation = 22, Population = 8.
...-.......
**....**..-
**....**...

Generation = 44, Population = 8.
...-.......
**....**..-
**....**...

*** Life<Cell> 4x14 ***

Generation = 0, Population = 35.
0-0--00--0--00
---000-0000000
0000-00-0--0--
00000--00-0-00

Generation = 9, Population = 31.
1-**.0-11**-.-
*.-.-1**-.-.*0
-***-*.*.*.**0
1**..**1*-.0..

Generation = 18, Population = 15.
..**.*.-...-..
.*-...*...-.**
*....*......**
*.***.........

Generation = 27, Population = 12.
.......-...-..
.**..**...-.**
.**..**.....**
..............

Generation = 36, Population = 12.
.......-...-..
.**..**...-.**
.**..**.....**
..............

Generation = 45, Population = 12.
.......-...-..
.**..**...-.**
.**..**.....**
..............

Generation = 54, Population = 12.
.......-...-..
.**..**...-.**
.**..**.....**
..............

Generation = 63, Population = 12.
.......-...-..
.**..**...-.**
.**..**.....**
..............

Generation = 72, Population = 12.
.......-...-..
.**..**...-.**
.**..**.....**
..............

Generation = 81, Population = 12.
.......-...-..
.**..**...-.**
.**..**.....**
..............

Generation = 90, Population = 12.
.......-...-..
.**..**...-.**
.**..**.....**
..............

Generation = 99, Population = 12.
.......-...-..
.**..**...-.**
.**..**.....**
..............

*** Life<Cell> 3x14 ***

Generation = 0, Population = 26.
0---000000-000
0-000000-0-0--
0000-0--0-0---

Generation = 44, Population = 4.
..........-...
-.-..**.......
-....**....-.-

*** Life<Cell> 2x2 ***

Generation = 0, Population = 2.
-0
0-

Generation = 33, Population = 0.
--
--
