*** Life<FredkinCell> 9x9 ***

Generation = 0, Population = 3.
---------
---------
---------
---------
---000---
---------
---------
---------
---------

Generation = 1, Population = 10.
---------
---------
---------
---000---
--01-10--
---000---
---------
---------
---------

Generation = 2, Population = 12.
---------
---------
---000---
---------
-012-210-
---------
---000---
---------
---------

Generation = 3, Population = 30.
---------
---000---
--01-10--
-00-0-00-
01-3-3-10
-00-0-00-
--01-10--
---000---
---------

*** Life<FredkinCell> 10x10 ***

Generation = 0, Population = 4.
----------
----------
----------
----------
----00----
----00----
----------
----------
----------
----------

Generation = 1, Population = 8.
----------
----------
----------
----00----
---0--0---
---0--0---
----00----
----------
----------
----------

Generation = 2, Population = 16.
----------
----------
----00----
----11----
--01--10--
--01--10--
----11----
----00----
----------
----------

Generation = 3, Population = 16.
----------
----00----
---0--0---
--0----0--
-0------0-
-0------0-
--0----0--
---0--0---
----00----
----------

*** Life<FredkinCell> 150x150 ***

Generation = 0, Population = 200.
------------------------------------------------------------------------------------------------------------------------------------------------------
----------------------------------------------------------------------------------------0-------------------------------------------------------------
-----------------------------------------------------------------------------------------------------------------------0------------------------------
------------------------------------------------------------------------------0--0--------------------------------------------------------------------
------------------------------------------------------------------------------------------------------------------------------------------------------
--------------------------------------------------0---------------------------------------------------------------------------------------------------
------------------------------------------------------------------------------------------------------------------------------------------------------
------0-----------------------------------------------------------------------------------------------------------------------------------------------
--------------0-----------------------------------------------------------------------0---------------------------------------------------------------
------------0-------0--------------0---------------------------------------0--------------------------------------------------------------------------
--------------------------------------0---------------------------------------------------------------------------------------------------------------
---------------------0---------------------------------------------------------------------------------------------------------------0----------------
-------------------------0----------------------------------------------------------------------------------------------------------------------------
------------------0---------------------------------------------------------------------------------------------------------------------------------0-
-----------------------------0-----------------------------------------------------------------0------------------------------------------------------
-------------------------------------------------------------------------------------------------------------------------0----------------------------
------------------------------------------------------------------------------------------00---------0------------------------------------------------
----0---------------------------------------------------------------------------0---------------------------------------------------------------------
------------------------------------------------------------------------------------------------------------------------------------------------------
------------------------------------------------------------------------------------------------0--------------------------0--------------------------
----------------------------------------------------------------------0-------------------------------------------------------------------------------
-----------------------------------------------------0------------------------------------------------------------------------------------------------
-------------------------------------------------------------------------------0-0-----------------------------0--0-------------------------0---------
---------------------------------0--------0--------------------------------------------------------0-----------------0--------------------------------
------------------------------------------------------------------------------------------------------------------------------------------------------
--------------------------------------------------------0---------------------0-----------------------------------------------------------------------
--------------------------------------------------------------------------------------------------------0---------------------------------------------
------------0----------------------0------------------------------------------------------------------------------------------------------------------
------------------------------------------------------------------------------------------------------------------------------------------------------
------------------------------------------------------------------------------------------------------------------------------------------------------
------------------------------------------------------------------------------------------------------------------------------------0-----------------
------------------------------------------------------------------------------------0-----------------------------------------------------------------
---------------------0--------------------------------------------------------------------------------------------------------------------------------
-------------0------------------------------------------------------------------------------------------------------0---------------------------------
--------------------------------------------------------------0---------------------------------------------------------------------------------------
--------------------------------------------------------------------------------------------------------------------------------------0---------------
------------------------------------------------------------------------------------------------------------------------------------------------------
------------------------------------------------------------------------------------------------------------------------------------------------------
------------------------------------------------------------------------------------------------------------------------------------------------------
----------------------------------------------------------------------------------------------------------------------0-------------------------------
----------------------------------------------------------------------------------------------------------------0---------------------0---------------
------------------------------------------------------------------------------------------------------------------------------------------------------
-----------------------------------0-----------------------------------------------------------------------------------------------------------------0
------------0-----------------------------------------------------------------------------------------------------------------------------------------
---------------------------------------------------------------------------------0-------------0--------------0---------------------------------------
------------------------------------------------------------------------------------------------------------------------------------------------------
------------0-----------------------------------------------------------------------------------------------------------------------------------------
-----------------------------------------------------------------------0------------------------------------------------------------------------------
-----------------------------------------0------------------------------------------------------------------------------------------------------------
------------------------------------------------------------------------------------------------------------------------------------------------------
---------------------------------------------------0------------------------------0-------------------------------------------------------------------
-----------------------------------------------------------------------------------------------------------------------------------------0------------
-----------------0-----------------------------------------------------------------------------------0------------------------------------------------
--------------0-----------------------------------------0-----0---------------------------------------------------------------------------------------
----------------------------------------------------------------------------------------------------0-------------------------------------------------
------------------------------------------------------------------------------------------------------0-----------------------------------------------
------------------------------------------------------------------------------0-----------------------------------------------------------------------
---------------------------------------------------------------------0--------------------------------------------------------------------------------
------------------------------------------------------------------------------------------------------------------------------------------------------
--------------0---------------------------------------------------------------------------------------------------------------------------------------
---------------0--------------------------------------------------------------------------------------------------------------------------------------
------------------------------------------------------------------------------------------------------------------------------------------------------
------------------------------------------------------------------------------------------------------------------------------------------------------
---------------------------------------------------0---------------------------------------------------------------------------0----------------------
---------------------------------------------------------0---------0--------------------------------0-------0----------------------------------0------
--------------------------0-------------------------------------------------------0-------------------------------------------------------------------
------------------------0--------------------------------0--------------------------------------------------------------------------------------------
------------------------------------------------------------------------------------------------------------------------------------------------------
-----0----------------------------------------------------------0-----------0-----------0-------------------------------------------------------------
---------------0---------------0----------------------------------------------------------------------------------------------------------------------
------------------------------------------------------------------------------------------------------------------------------------------------------
---------------------------------------------------------------------------------------0-------------------------------------------------------------0
------------------------------------------------------------------------------------0-----------------------------------------------------------------
------------------------------------------------------------------------------------------------------------------------------------------------------
------------------------------------------------------------------------------------------------------------------------------------------------------
-----0-------0-----------------------------0----------------------------------------------------------------------------------------------------------
-----------------------------------------------------0----------------------0-------------------------------------------------------------------------
------------------0------------------------------------------------------------------------------------0------------------------0---------------------
----------------------------------------------------------------0-------------------------------------------------------------------------------------
------------------------------------------------------------------------------------------------------------------------------------------------------
----------------------------------------------0------------------------------------------------------------------------------------------------------0
------------------------------------------------------------------------------------------------------------------------------------------------------
---------------------------------------------------------------------0--------------------------------------------------------------------------------
------------------------------------------------------------------------------------------------------------------------------------------------------
------------------------------------------------------------------------------------0-----------------------0-----------------------------------------
-------------------------------------------------------------------------------------------------------------------------------------------0----------
---------------------------------------------------------------0--------------------------------------------------------------------------------------
---------------------------------------0---------------------------0----------------------------------------------------------------------------------
-----------------------------------------------------0-------------------------------------------------0----------------------------------------------
------------------------------------------------------------------------------------------------------0-----------------------------------------------
--------------------------------------------------------------------------------------------------------------------------------0---------------------
------------------------------------------------------------------------------------------------------------------------------------------------------
-----------------------------------------------------------------------------------0------------------------------------------------------------------
----------------------0-------------------------------------------------------------------------------------------------------------------------------
---------0-----------------0--------------------------------------------------------------------------------------------------------------------------
------------------------------------------------------------------------------------------------------------------------------------------------------
-----------------------0------------------------------------------0--------------------------------------------------------0--------------------------
--------------------0---------------------------------------------------------------------------------------------------------------------------------
-------------------------------------0-----------------------------------------------------------------------------0----------------------------------
------------------------------------------------------------------------------------------------------------------------------------------------------
---------------------------------------------0-----------------------------------------------------------------------0--------------------------------
------------------------------------------------------------------------------------------------------------------------------------------------------
------------------------------------------------------------------------------------------------------------------------------------------------------
-0--------------------------------------------------------------------------------------------------------------------------------------------0-------
------------------------------------------------------------------------------------------------------------------------------------------------------
--------------------------------------0---------------------------------------------------------------------------------------------------------------
-----------------------------------------------------0--------------------------------------------------------------------------------------0---------
------------------------------------------------------------------------------------------------------------------------------------------------------
---------------------------------------------------------------------------------------------------0----------------------------------0---------------
------------------------------------------------------------------------------------------------------------------------------------------------------
--------------------------------------00--------------------------------------------------------------------------------------------------------------
------------------------------------------------------0----------------------------------------------------0------------------------------------------
---------------------------------------------------------0-------------------------0------------------------------------------------------------------
-----------------------0------------------------------------------------------------------------------------------------------------------------------
---------------------0-----------------------------------------------------------------------------------0--------------------------------------------
----------------------------------------------------------------------------0-------------------------------------------------------------------------
-----------------------------------------------------------------------------------------------------0------------------------------------------------
---------------------------------------------0--------------------------------------------------------------------------------------------------------
----------------------------------------------0-------0-----------------------------------------------------------------------------------------------
----------------------------------------------------------------0------------------------------------0------------------------------------------------
----------------------------0--------------0----------------------------------------------------------------------------------------------------------
-----------------------0---------------------------------------------------------------------------------------------------------------0--------------
-----------------------------0----------------------0-------------------------------------------------------------------------------------------------
--0---------------------------------------------------------------------------------------------------------------------------------------------------
------------------------------------------------------------------------------------------------------------------------------------------------------
------------------------------------------------------------------------------------------------------------------------------------------------------
-------------------------------------------------------------------------------------------------------------0----------------------------------------
---------0--------------------------------------------------------------------------------------------------------------------------------------------
-----------------------------------------------------------------------------------------------------------------------------------0------------------
--------------0----0---------------------------------------------0-----------------------------------------------------------------------0----------0-
----------------------------------------------------------------------------------------------------------------------------------0-0-----------------
------------------------------0-------------------------------------------------------------------------------------------0--0------------------------
------------------------------------------------------------------------------------------------------------------------------0-----------------------
-----------------------------------------------------------------------0------------------------------------------------------------------------------
----------------------0-------------------------------------------------------------------------------------------------------------------------------
--------------0-------------------------0-------------------------------------------------------------------------------------------------------------
---------------------------------------------------------------------------------------------0--------------------------------------------------------
---------------------------------------------------------------------------------------------------------------------------------0--------------------
------------------------------------------------------------------------------------------------------------------------------------------------------
------------------------------------------------------------------------------------------------------------------------------------------------------
--------0----------------------0----------------------------------------------------------------------------------------------------------------------
--0---------------------------------------------------------------------------------------------------------------------------------------------------
----------------------------------------------------------------------------0---------------------------------------------------0---------------------
---------0--------------------------------------------------------------------------------------------------0-------0---------------------------------
---------------------------------------------------------------------------------0------------0-------------------------------------------------------
----------------------------------------------------------------------------------------------------------------------------------------0---0---------
-------------------------0------0-----------------------------------------------------------------------------------0---------------------------------
-------------------------------------------------------------0---------0------------------------------------------------------------------------------
------------------------------------------------------------------------------------------------------------------------------------------------------
---------------------------------------------------------------------0-------------------------------------------------------------0------------------

Generation = 100, Population = 7455.
6----++------7-+-+-5-8---8-9-+--+----7-+7---9--9----------------------8-8-------4+-+---+-----+-65---7--+8--9---------3-8++----8847--4---8-------+----6
8-+-+---+++--++++8--+-+-+-+----------4------+9++9++--+--+-+-9-+8---------8---++--++------------------++-------7---+---+-7---------------------8---9---
----6----++7-----------+-+---+---5-+-------+--+----+88----+-+---------------+--+-+-8---8---8-+-----+---7+-----8--------+--++-+----4---------7----6-7--
-+------87------6+--+--++----+---+-+--+---+--+7--------+----------8+--7-9-+-----9-------+------+-+++--++--9--+----+--5----3----+------8--+2---6-------
--------6+-----+++-----+-+-+++---+-+----8+--+-++-67---+-----+--9--+-+-+--------8++---7---+--7---+--+--+-----+-+--5+------66+5---9-----+-8------+-6----
--+9+-+--++9-++-+---+---+-----+--+----+-++--+-+-++++++--+-9-7----------------8+-------+-+-----+--7+------7+9+-----+--6------4----+-9------87--+---8---
5-----+------+-+-------7-+-+-------+-+----3----+--9--+---+----+------+-------------7+----+----------------+++-----++----------8------8------6---------
-9---+---+-9-8--+9--+---5--+++-++++--+++--++-8+---++-+---6+----9--+---+--++9--------+-------5+-++-++---+-++--------+-+-----+--+---5+-+++----+4----3---
----+8-----9-8---+--+----+-----+7----+--+-++++--+-+++-+--+++----+-++------+89+--8+--+-------9--++-+++---+--8+---+--6++--+-------++9-9-+---88----++-7-8
----++-8----+++-+-+---+9--+-+--------+-++---+----++-+--9+++----+----+-+-----+-+-+-9-+-+---+-+---+-+--+7++------+-7+-+---+6---7-+-----6-+----+-6++-3---
-+----------+----+-----+--++----+----+5------+---+9-+----+--95-7------------+---9+-3----96+----+9----+--6----+9-+------------+-7-+-----+++------3-98-+
-+---+--8------++---+---++--+----+-++-+--++---+------++--------+-----++-6--+-+-++--+----++--+------+9++9-5++-----+-+-+-------------+--+-++-+--9-+--+--
-+-+++--++---++-9-+----+-+-+-+-+-9-+----8+9-+--+----4+---+++-+-++---+++-----+++-+--9-+-+-+-+-+--+--+--+-+8+----+-+6-+-++--++9-------+++--99-+--+-----+
+--+----6++-+-+-9-+++--3+-+---+-----+-+----+--+------++-+--++-+-+---------+++---+---------+-+-+--------3---88-7------++-+-------++------+---+---+-----
-+------+--+----+-+--+++-+-+6-+7-++-9----+-+--+---++--+-9+-6-6-5-+-+-+--+---+++-+-+-+++--9--+-++-8-+++---+--+------+-----+-+---+-+---+-----9+8---+85--
9--4-5---+--++---9+------8-+-3--2--+-----+--+9------------++-+--8--+-+-9-------+-9-----+---+-+--+----+---+-++----+-----+---+-8--+----+-+-+-++--8-+---+
27-+-+-6+++---+--++9-+9----+-+-+-+-+-+--+---+-+-9-+-++++-+--8+9+-+-+9----++-+--+--+8-+-+-+-+---+-+-+-+-----++----++5+------+---+-+-----+----9+--------
+---+-7---+++-+-+-+++++-------+-+--+-----++-++----9-------7---+-----+--+---9---------+--+---+-7---------+---+-----9-----+---+-+-++--+--+---++-------++
-+-----8-+--++-+-++--+---89+-+-96---5++7----5+--6-+--+89-+-+-+-+++-+----+7+-+--+----9+-----+---+++--8-+--+--++---7---+-5-------++--+--+++-7---+++++--+
--+++-8---+---+------+++-------+---+-++-+----+-+9---+-+-++--87--+--++++-+++-----++-+--8+-------------++-++------9--+-----7--9------+9+++-++--------+-+
---599-9-----+----6--+------7+-+---------+-+9---9+------++8+---++----+--+----9--+--+---------+-+-------+-+------+-9+-+-++79-------++-+-+9-+9-+7-+-----
----++-+7---+-+-+++----+-++----+----8+-+-+---+9-+++---+---+-+-----+--+7++-+----+-+--+---+++----9----+--+------+4+-+-+-----+--++-+-2---9--------9-+-9--
-----6--+++9--+--++--++--+8+-+--8--+------++++--++--------+-+--++---5---+-+++---+-+6+-----++--+--+++++---+++-+--++---9-+-+--+----++-----+-+++-----+++-
++----++--++-++------+---+-+---+--+----+-+++--------+---++-+-+-+9++-+-++-+++9-+--+---+---+++---+-+++-++--+9--+---------------+-+4-7+---+-+1-----------
---8------+----+--+------+----+-3----+-6-----+-----9+--+-+----------------9++--+--+------+----+--------------------4+--------------9--++--796-----+---
++----+--+----+-++--++--9-9++-----+------+9---+-+-------+-----+--9+------++++-+---+-++--+---8------+------+9--8---+---8-+-+---+----+-----7+-----+---+9
-+-8+-------++8---+--++--+-----+-+-------+--9-63-+---+9-6+-8+---+--+--------+-++--+---+---+--+-++-----+-+----7-+-7---------+-7--+---+-+-+---+-----+---
+9-+-----+-9-++-------+------------+--+-+---+---8------++----+-+++-+--+---+--++-------------------++-9+-9+7--+--+--+----+------+-+78--++--+--9----7--+
---9-+-+-+-+--+----+67----8---------3-------4--6---------+-5-+-----+---+-6-+--++---+-+----++-9--------------+--+-5-+-+-+---5----+------+------8+-7----
----++----+--+++++++-++8--+-+-67----+-+--9---+9--8--+-----+------+---+8-------+-+++---1---8-+----------------6+---+-----------9------8++-8--------+---
-------89----+-7-8------++---++------+9-+----+---8--6+-------+--+---++-++----------+----------+-+---+---98------++---+-7-4--------+-----9--+--+-------
--+--+78-----+88--------------+-------+---------8------------------+--+-------6---7----------------------3--+--+-6--7--+--+-+5-----+------------------
7+-6---9-9-++--+----------------9-----+--------798---+-+-+-+-+-++------++--++--+---+-+-++9-----+-7----+-+-------++-+---+-8--+++-+---+---+--7++-----9+-
------+-+-+-8+--+++-++-++-+-+-+-9-------9+---86+8++---+-+----+---------9-----++++-+-++--+-----+5---------+----+--99------------------9-------89-9---+-
---9-----8-7-------89+8---+--------------++--------+-----+---8---+-4----++----++----+--4--+-+-----+---------8+---+-8-9---6-+-++-+-----+---+-------9--9
-6----+9-9-+-+-------+-+--8--+---+--------+-----7-------+--------+++--++--+--7----9--+------------+---+---7--++----+--+-++-------+8+---------+----5---
-98897-4+9----+--+----7-----+-----5-5-+-----6--7++-----7-+--++---+-+--+-++--+-+---+---+--+-+------+-+-+--------+-+---3---7+-+-----3---+-+---+---8-94--
------+-+-8-+---8++-++--+-8++------+9------+-++----+9-+-+-----+----+--+--9-++----7++++----++8-------------8--++---9---+----------3-------5-6------+-+-
---6-----------+-+7--+----5---+-+-----+--------------+---9-+-------7-8----+-------9+-+--+-----+------+------+------------+------+-8+8---------+----8--
-7+9--8------++--+---+---+++-+9--7--+++--+-9+----9--+----+--68-+8-9+-+-+--+--+---++--+-----9------+---9+---+6-----+----------+-++-+--+++-+----9--+-7--
6----9--+8+-+-7-+---+----+9----9--7--8----+5++---+--9----+-----++-9+-+--+--++7--+-+++++-+-+---+--+9---+---+7----++-7-------++-+8+-+8+-+-+-+++---+--+89
-------8+---+----++----+-++---------+-9-------+7+-+-+-+---6-8---+----+--+-+------+--+---++------------------8-9-+-+----------9--8------5-------7----8-
+-----+------+---++-++8--5--++-6-+-------+--+----+-+---+-+5-----+----++-----+-+--+7------+---+-+-+------++--9---++-+-----6+-+--+----+6-+-----+--------
------+--+8----+------++-9---9---+---8---------4+-------++--57---9-+5-+7-697--+--------8-------+---+--+-+--+9-8+9--9+----+--6-+--+-++----+-+-------+--
-5--++--+-7--++-++9-6++--+7--6---+-+-++--+---+8-+--+---+-8-9-+-----+--+++++----+-+--+--+-+-++-+-----+++--++-++++-+-+-+-+-+-+---++-9+--+-8+-----+-4+-++
8---+--7---+--+-+---+++----8--9-+-------+-959-------+--89-+-+-8-------9----++--------+--+---9-----------6--9+---5-------5---6-------7---8+-++-------+-
----6----+++8-+--+-+-+9-+--+-+--++-+----+--9-9--8-+---+--+-++-++-++-++--+-++--+-++-+-++--+-+---+-5-+-+--6---6-+-9-+-+++---7---+9+6-+-+---8-------8-9--
---------+--+--------+----+4----6--+-------------+-------+-+----+----------9-+-+----------9+-+--+--+-+-+++-----+-+---+-++--+-9--6+-+-+------2----+---+
-9---+---9---++-+----+++-+---++--+-+-+---+8-+--7-+++-+-+---+---+-+---9------+++--++++-++--++-+-+-++---++-++-++-+--+--+-+-------++--+-+-----++----+-++-
+-+------+++++----+-+---+-6---9-+---+-++---67---+--+++-----8--9----+-7--5--++7--+-------------+--8-----+---99-9-----++--9---9---+--+7+--7--+--+-8---+-
+---8+7+8----++--+9--++5----+--+-8--7--9-+--+----+9--+---+++-+-+++--+-++-+----+--+8--+++---+-+-++--+----+-+-8-++------+-+--9-+++-4--+-+--+--+----+---+
---+-++-++---+--+---+-+-3---77--++-+8++-7-+--+--++---+-+-+-------8----+---------------+--+--+---+--+++8-+++-8---+--++-5--+---------+--++++------8--+--
--+--------++---++------+98+---+-----+--+----+--+--+-+------++-+-----------+----+----+-5++++--+----+-+-++--8-+--+--+--------9-++--7-++-+-9+-----8-8+++
----++-8-+---++-+7+---+--69---------+++++------+-6-------++--+-+-7--+--+----+-+9+6+-------+-++----+---+---+----9-++-+----8-----7-----7+++-9-8-++--5-+-
9+------9+++-+-------+----+-------------+-+---+---++-++--+++-+-----+-+---8++-+--++--++----+-+--+--------+--+9------++----+-8--8--++8+9---99+-7--+----+
--+----+-97--------++---++--+6-+++--7+++-++++-+---+--+---+-+-4-+--9+------+-7---+-----------++-++-+-+-++-+9+7-+--97+-----54------8++-++9+++--+--------
6-----++----+------7----------------------+8+--+--+-----+7----+-+------6-----+---+-++--5------+----+---+--6+8--9--+------9+-----+77---9--+---------78-
--8-------++--+-+----+--+----++-+++---+-+++++-+----+-+--++-++----+---9----9--9+-+-+-----+-----+---+9-----8+-6-+-----+9--+---5----6+------6----9---3-6-
-+--++---+----7+-+----+-9--+9+-----+--------+-++--9--+9--+--+--5-+--+----9---+++++----9-+--7----+---7---8---5--++-+---6-+-+-77-+----8-+-8---8+-+-8----
--+8--+-+---+---+--+++-------989-+-+-----8+9-++-------+------------8--+-+---++--+--++-----------+9-+--7---7--8--------+9----------5-++8-+86-+7--4--79-
----4---7+--+--+8--+-+---+-+---8---+-+---+-9--8+---+-+----7++9------+-------++-+---------+9+----+-+----++--+--++-+-+-+-----+-++---4--+------+--+-8---+
----+++9-+-++-+-++--+----++------6--+++---9-9-+--+++---7--6-++------8--+-----85-----7-----+------8---7+786------6-7-8-------+------+-9++------+-------
++---+8------+---+--8--+--------+------++--------+-+----++---9+------++--+---6--++--8----7-----+--9--+--+----------88---+5--+-+----------+6------+-+-+
------+--------+-6-----+++--+-----8+-8-+-----+9+--+-----------+-------+--7--+--+9+-----+--9+-+--------+-------5------------------6------7+--8---8+5-3+
----+-------+--++-5--+-9-----++-++-----+-+--9--+---+-+-+++-----+++----+--------++----+-7---+9---+----+--9--+---8---++---8+----++++----+-9---+-+7+--+--
+------+----+++--++-+-+-+----9-------+++--+--+--+-+-++-++---+-+-+-------++----+++5+---+-+----6---------+----++++----+-9-+---+----------+--------------
----+---9++----------++----9-------+-----------+----+++6--+-+-------6----++-4+-----+-+-------67-+9----+--+-----+----++-+--6-9+--+-8---6-----+94+-+-+-+
-+--8--9-----------+++--9--------+----++-+-+-++---+---7---+--+---+-----++-6--+9----7--+--7-----+-987---------+----+----------+----7--9----++-+------9-
----+---+---++9-+----+++-69+++-+-+++++-+++----++------+--+-9+-----+-+-+-----7--+-+-----+--9-+7--+-+---+-----+---+9++--+--6--+-+---+-+-+-+-+-----8-4+--
---75-------+++-+--++-+-+-----+--+-++-+---++--+--++-++--+-+-+------+8-----5+-++---++9-8------------9--+--7-+------6+----6-++-+-------------+----------
8---8----+--+-----+-------86-------7--------------++-+--+-+---+-------+-----4--------9---6------+-946+-------------+-+--++----8---6-+---9-4-+------5--
++-+++---+----+--9-+-----+--9+----++--+------+----++-+----+--++----+7+6---+------+9------9---+-++-5---++-----+5----------+-+-----+----++-85+---+----4-
-----+------7-+-----++8--+----+++--+-+--7+9-+++-+---+5----+----+-+4---+---++-+---+-+-----5---7+++-9+-+9-9-++++--+-98+++++6--+-+-+6-+--5-+++-++9-99---8
----+-+--+----++--+-+-+---+-----+-9-------+------+-------+-----9--------------+++-+----------7--+-+-------8-------+-+-4-7+----9+-4----------8--+------
-68--9--+-+-88--------+-7-----+-+-----+-----+----9+---+--+---6-+--------+---+---++-5-----94-6--8----++8-----6+---+-------7----+8+-----8---------8+-9--
-+---+-8+-+-------+--+-++----+--------+--+98---9-----+++-+-------+---+-9----+++++---+----+--+++----+8----8-7-----+---688-+-----+-9-+-+-----+++699--+--
-+---+---+5--+--++8+--9--+++-+-+---+++-++++-+++-++5-8-++-++---+---9+-+9---+--+++---+-7---+-+------89--++++-----+-+--+++8++-+-9-9----+-++-+6-+-+------+
+-+--+--+-+7-+---------+--+-+---+------+---+6---+---++---------------------++-------+--+----9-------+-+-+6-++-8-----+-+-+-+-+9--8--++---+-------+---9-
7+----+-++-+----+-++++----+--+------++--+-++--8-+--++++----+----++-9----4---+---+-+-+-+-------8++++--+--++7+----++-+-+-----7------6-+--+----+-----7-7+
---++----+--+-+----+-+-+-----+-----------------7---8-+----8-----++-+----39-------+---6--+8-+----+--+---------+-+--7--+----5+----+--+----+---+--+-+---+
-+---+---+--4--+-+---++6----8--+-+-+-+--6+-+-9+--7-+--++--++-+9--++---+--++-+--+--+--+-+---+---++----+------+-+--+-++-++++++-+-+++++--9---+-++-7-88---
----8--+-+--+----8-+++-----7+-9---+--+--+---++--+---+---+-----9-++-----+---+--+-+--+-+-----+----+--9+4--+--9-7--+-8---------+-+-++--+--+++--9---+---+-
--6-8--39+--+--+8+----+++-----+-+---+-++-9--6---+++--+-++---8--+----9-------+-+++++-----8+++---+-+--+-++-8----9--+----6+--------5--+---++--+-9++9-2-+-
++----+---+-----++-+-+-----------+----+--+---+--------68----4---++-66+--5-+-++--8---88-+---------9-+--++--------------+--7--+---+---+8+++8-++---+--++-
-----+7+6----+9-+----+--+---9+--+-9----9-+-+---7-----+-+++++--7------+-+8----+--+--+-----------+--+-+----+99----++--++-++++++-+------+-++-------+--+-+
--+-+++-+----+---7---+---88--+-+-+--+--7----+-+79++-------9--+----+-+-+---+-9--+-9+-----++---+-+-----49+7+--+-+987--+-----+-++--+-8-+++9-----+------+-
----8------7--------+------------+---7--+--+-+-------+------------------+--++-5----7-+6---++-+-----8-+----++-+--+---++----8-+------9---++6-9--9--88+--
-++-+++---+++-----+--8-+-----+----8------++-+---++-+-------6-+-++-7-76++-+-++-+----------7-+-+----++---+8-+-+---------------+--+--8--+---77-+------+--
---+--------7-----+----+++--9-+-5----+5+---+-----9-++----+----+----+------++7--+--++----++------------8+-------+-+-++--+++----+----+------+9+----8++--
676---+-+++-+-9--9-+-----+-++----+-+-+---8+6-++-1-+---+-6-----+-+-+7-----9+-9-+-+--9-+--+7-9+-----+------+-8-+----+---6-+-----+---++------5++-------6-
-+991-9-++------+9---+------++---+---+++-+--99-+5+---+--+--+++-----9----+---7--+--+--+8-7+--+--+++--++---+----++++----+-7--+---++---9---7----+-+--+-+-
-8-------+-+--+---++--+-----4-----++--+-+---++--+--+-9-7+-----7--+-+--9--++--9----------------------5-+-5---+9--8--89-------+--9---++-+-+------------+
---4-+-+-+-+--+8-----81----+--------+---8+--++-+---+-+---+7--+-+--+--------+--+--+-+-+-+---+++----+++----+-9++-6---+-----++9-7--7-8---++9-+---9+-+---+
-7--+++---+-+-+---+6---+967--7------8+-----+--+-6-+-+------------+--7+8++++---+---+77--6--+-+4-----9-+8-------9+--5-+-----+------4---+++++--------8-+-
9----+-+--+------+-+-+--+9---9+-++9+-++-+7++-+--++--++-+-9------+-8-++-++---+----+-+7---7---++8-----++--+-+--7--++--6----+-+---8--++-8------+---7--98-
--++-+-+-----++5--+----+6-------------------9--8-9-----++6+6++----+--+-------6+---------------+--+----8-4+--+---2++----++-++-4--+--84-+----+----------
++-+---+-+--+--+--6--+-+--+---++----7-+-----+--+++---+---+------+----+------+--+--------++----+-++---+++-----++-9+---+-+-+-5+---+-+---+---8+--9----+7-
-----8+7--+--+--+-+----+------+-+------++---8-+-448-+---+----+--------++--+-++----7-+--++-----+--------8---9----8-----6-9----+---------+----+9------9-
---+----7------+----++8+--9-+---------++8+5-99---+----+--+-+--+-+8-9--8-96-----8----9-++--+-++--+-+---+--+---++----+-+-------++++6----+-++--+--97----9
------+--+-6--+-------++--8--9---+9-8--++-9---6-+--+8++--9-----+-+-------+7--++---8---+---8------7---+-79-+8-+------+----8-----+-+7----+--9----+------
-+++++-+++----+-7-----+--+-9-9----+-6---7---9--------+-+--+-++-+--+-+--++------+-7-8--+--+--9-+---9+8-+--+9-+-----+--+-6--+-+---+++-9----++---6-+5-9--
3--++86---+-+-+--++-------+--------5+-----8--8+-7-++9-+-+-----7----+7-+--+3++-6---+--------+-6-------------9--------+--------------7--+--3+6---+--2---
---+7-------+-----88-+--+-+---7-----98---+--------9--+----+-----+-3+++------------7+-+--9+4---6---9-+---+-+-+------+-6---6------+-+-+5--8-6-+------8-+
--+--+-----+-+--+-+-+6---+++-++-+--++++---8-4-+--+9+9----6---+----+--+----+--+7-----------9--++--9-9+++--++-6--+----8---4----8----++-8+----+----------
+--+-+--++8--+--+-+--+-+---------+----+--+-------+---++--+---++++-++-++-8---+++-+-+-++-3-+-----+-+-+--8--+8---+------7---5-+-++++-++--+--+-6+++-+-59+8
-6+-+--+--9----++----+--+------+---------9--+-++--9-9-----+--9--+-4--+--+-8-------8---+--5----++-4----------+--+-------------7--9-+----+--6+-------9+-
9-----+-8+--+----++---+--+-+-+---+5--9---77-++--8-----+++---+--+----+-+-----5+---+----9--+----+++-----9-----+--+++-5---+-+-9+----------+-----++--9-+--
-+----+7-+-88---+---8---8+-------+---+-9+-+-+9+---2-+8-+-----9+--5-------+-+--+--+---+-----------------+1---+++5+--------+--+-89++-----+-+-+----------
----8+-+9+-67++--8-+++---7-+--9---7--+----5---9--+5+-+---+++--9+--+++-7++6--+----+++++++-+5--+-7--++--++--+---+--+-+---+---+------++-+6+6----+-+-+7+7+
----9--+----+----+--+----4--+-----7--7--+--8-+--7------8----6---+8--8--+7--+9-9-6-----+---+--9--2--7+---6-------+------+----8-------9-+-++--+--8+-6-6-
-+--+---+-++-+7-+--+9+++------3+++----+-++--+---8-++-+-----+++--9-+--+--++++----++-+++---9-+----7-3-+---+---+---+-++7--8+---------++-+-----+----++---+
-+-----+---+---+8--+7+-----------+-+8---+---+-9----+---+6----+-----------------+--+-------+--+--++-+-+++7---+--------+-----+----+---6----------+------
--+7---+++-+-+-+-------+-++--+---++---+--+6-+--+--+---++----9--+--++-+--+--9+-++-+-+7-+--+++-++--+47--+---+-+--+-++----+---+-+-++--+--+--+6-6+7+-+3+8-
6-++-+--+--+-+--+----+----------------+--+--+-+--+-+-+-----5+---8-8+8---+----+--+-+-5---+---8-8--9--+--+++--8------+-------+----+--+++--7--+9+--8---9-
4----+8+----+--++-5--+-++-9++----++-+---++--+-+--+----++------------+-+7-+--++--++---+-++---++------+--7----+-++++7-+-+-++-----+-+---+++-9----8-------
-+-8-+---+-+-++-------++------+-++--------9-+---+--+9+---8-7-----+-+--+--+---8--------9-----8---++7-++-+9+++++--8---++-8+---6---9--++-8+-6-++---------
++3---7+-------+--------7+----+------+-++----+--+9------88--+---7----+-7-+++---+++-9++-+++9+--+------+-++---+---+--+-+---+----------6------+--4-7+-91+
----9--9----+----+--------+-+------+6+++--7+8+---7+--+--+9---+-------+--++--7-++++--6-----+--+--9-5--+++----++---------------+-+-----+++7+--+--6-+----
-----+---+---------+----------------+-----+-------8-+------------7------+9-8-+-------9-------------6----+--8+-+---4+-++----6-+--+--9-4----+-----4-2-1-
-+-------+--+---+78+------++-+------+++----+4----------------+----9----+++8-+----8-------------+--9--85--+--++---+-------+-+-7--+-4+-+----7-+--++-----
+-+---9+---+-----+-++----+----+----+------+++-+---9+-+-++9--+-+-++-----+-+-7---+7+-++---6+----+----+----6-+9+---+87+----+9-------------+------48-9-+0+
-+-------+---+--+-------+-----+-++++---+-72++-+-++-+-----+-++-------------+--+----+-----6-----+-9-++----+-++9---+--++---+8-+----+-8------929-+--------
-9----++-+--+---+----+--+-5+++---9+++-+-++----+--+---+--+---++--------+8----+--8++---+--+--8++-4--------+------8--8-+---+8-----++6--+9--------+-+---3-
--+-----+--+++--8-++++-++------+-+----+--+--------++-------+3-----+-+-9-+---7+--6--+7+--6---+-+9+--++-++9------------+----------+---+-2-7--+-6--9-----
--------++---+-+---+-+---++--+----8-------9+--++--2---+5---6+------+++--++-+-+-9----+----+7--+-+--+---++----+-+--8---+-9---+9+----++8-5--+8685-9-+99--
-+--+------+-+--+---+--------+---+--+8+++75+--6--89++--++9+--+-----+---+---+-+6+6---+------------+---+++++--+-+---+++--+-----+-----+894----+---+------
-7+5-++-+-++-+--5+--++-+-+----+-+-+-+--+--8------+-+++--++---++-+++6-------+-+--++--+8-+---+---+8-++++----------+--+6---++--+8--6---+---6-+-----5+--8-
-------6----+-++++----++-++-9+----++-+-------++--------99--------+------+---+---79+----+++8+++--9-+-8+-------+--------------+-+--+--+-7-++--+--+-+9---
7---+-+-----8--+-+---+---+-+----+--+-+-----+++++-+8+-+-+5++---+-7---7++7+---+++--+--++---+------9-++------+++-----------++----+-+++--+++--+--+-+++-+-+
++-----++---+-+-+---+-++++------------+---9-7+-+--+--+-++---+-+----------+-++-+++---+--+9----+---------++-+-++-+--9---++8---+-+++----+-----+---+-----+
--+---+8+++-99---+----+--+-+--+-++-+--+--+-----+----++++--+-+-----+-9--88+---+8--+---+8--+-+-++8++----+--7--+--+9----4++----++--7---8-+------++-------
-++-+--++-+----++-++-7+--+----++-+-------+----+-------+5--+------++-++-++-++----+---9+---+-----+-9-------+----++-----++---+--+--+----+-++-+8-+-----+--
-74--7--+------------9-+--+-++----+-+--++-------+----7+--+-++++-+-9+8---++8-68--+-9--9-6--+-+--+-+2-+-+-++----6--9-+-----+--5-+---++8----+9++-----++-9
----++----+-----8---+---9+9+--9-++-++++--++9--+---+-----+--9-7------------+-----+-+++------+--+----++-+--++++-+8--++----+----+---+++-----+-------+-+--
----+9+--8--+-----8--7--+-+-------++-+------7-----+8-+--+++---+---+--8--6-6-------47-5---++-----8-+-+8--+-+-+-----8+-5---8+-----+-6-+---4-+-+------+-4
+--++++---+++-+--7--+----5-7-9-----+-+----++-+--+--++----9++-++-8+-++9+--++---++--++----9----+----9+------++-----+-------++---+----7+-+--+979--+----6-
-----8-9-------------++--+---9+-+-++-+--+----+--8----+-+--7-7----++-+-+-8+----+-++---+6--+-6+++++-+++-+-+++7-++-+-7++7-5-69----+-+-+--+--+8---+----+--
---------+--+-++----+-++--+-+----+8-++-++-5----++-+5-++--+----98-+-------7----9+-------+--+-++--8-+--+-9+-++-------+-----+-----+-+---6------+--+-----+
-+-8-+--++--+9----+-+++6+---+--7------+-++--++---+---++--+-+-++-6+----+-3+--6--7+-----+6----+----------+-----++--4----8--5----++------+-----8--946-9-6
-----++---+-+9++--+-9+++-----+++-+-----+-+-9+-++9+--+-+++--------+-----+9-9-++----6--+6+----9-+8+------8-+-+--9------+-------+---+-----++---+++-+-----
88-6-------+--++-+++-----++---++----+-++++--+---7+--++---+-+----+-9-------8-+-+--+9+---+++9+--+-+-++5+8++---++-9+++8++-5-9---+-+--++-+++--9+----------
--+--+--+----++-+------+---------7-----++---+-5+-+----++-++-89--+-88++-------7---------+8---+---+9--+---+---+--+--+-------+9-+--+---+---+-------+-----
+------++8+---+-++-+-89-+9-+9+---++-----9+++-7--89-+8+-9------985-+-7---+---+---+-8886--9----3----+9-+-----+----++--+7---2-97---+-+-----8-------8--763
-+------8-+6--+----+----9-+--+---+-----+---+---++---+------------+-+-+++9+--+-5--946---+-+---+-----++--------+-7--9-------+--+---8----+++---+--7------
-9+-9--7--++---+--8---++----9------+----8--++--9----+----++--+----+---++--7-+-++-+6---+7---3+--+--6++-+-++++-+++-++7+----+88-+----++--7--+--7----+---+
------++-++-+-+--+9+-----9-+5-----+++---+--8+7--+-+9-+------+---+---9-+-+----------+-------++---+-+-+-+-+--+++--+-----------+--8-+--+--+++--+---------
-+++9-+--+--9-+-+89--+-8-----+-------+++----++-++----+-++-++++---++-6----+--+-+-++--+-7-6-----------++8+-+--9---4----6--+---+7--+---+--98---+-------7-
+------++---+-+-++--9+-------+---+---+---+-+-7----------+-----+-+++8----+-+7+---+--+++--+7-+----+--+--+----+-8--------+---------++++-+--+-6-8+--+--++-
6----+--------+--------+++--+-+-9+7--+++---+---+7+-++---9+----+----+---+8-3++---7+68-+--++--+---+------+---+--875+-++9-9++-8--+---------7---+---+--6--
---++-----84+8+---+----+---------+-----+++--+----+--+-----8-9---9--+--++---+97---------------+----8--+--+99-9--+-8----------++--+----+9+-+--++-+------

Generation = 200, Population = 7409.
-------++-+-----+-++-+-+-----+++--------+-+--+-+-+-+-++-+----+--++-+---------+--+---+-+-+--+---------+--+--++-+-----++++---++-+---------------++-----+
-+---+-+-+-+--+++++--------++--++++++--++-+---+---+++----++----------+-+-++++---+++-+-+++-+---++--+----+----++-++-+-+----++-------+----+-+++-+-++++---
-+---+-+--+-----+----+-+++--+---++----+----+-+-+--+-------+-+---+-----++--++-+-+----+---+--+-++---+--+++-+-++---+-+++--+-+-+-+------++------+---++---+
-----+------++-+-+-++-++++-+---++-------++-+--+---+-++---+--++------+-----+--------+-+++------+------++---+--+-+-++--+-+-++------+-+-+-+----++---+-+--
-++------+-----+--+----+++----++-----+---++-+-+---+++-+++-+----------+-+-+-+----+-+-+---+++-+--+-+--++----+-+--+---+++++-+-+++---+-+---+----++-+----+-
+++-++-+-+-----+--+----++-+----+------+---+++--++++---+-----++-+-+--++---+---++----++--------+-----++-++--++++-+-------+--+----+-+--++++-------+------
-----+---+-+++-+--++---------+-+++----+++++--+--+-------++-+--+-+----++-+-----++----++--------++------+-----++-----------+-----+---+--+----+++-+---+--
------+----+-++++-----+-------+-+----+--+--+++-++---+--+++------+----+++-+---+-+------+------+-++----+------+---+--+--+-----+--+++------+----+--------
+------++---+--++-+--------+-++------+-++----+----+--++-++-+--+------++-+---+---+--+-----+------------++------+-+-+++-+------+-+----+-+-----+-++--+---
-+-+--+---------+---+-+-+-+-+-----++-----++++-----+------+----+-++----+-+-------++++------++++-------+--+--++++----+-++-+-+++----+++--+--++-----+-+-+-
---------------+-+--+---++----++++--++-------+-----+++-+-+-----+--+-+-++-----+++-+-+-----+-+-++++----+-++-++-+-+---+----+--+---++--+------------+--++-
-+--++-+----+-+----+++-+----+-+--+-+--+----+-------+------+++-----++-------+---+-----------+-+--------+--+---+-------------+---+----++-+---+-+-+-----+
-----++--++----+--+--+-------+-+-+-+++-+---++-+---+-++-----++++-++-++------+-+--+-+++--++-+------++-----++----++-+-+++--++-+-----++++++--+-+---+-----+
-+--++++++-++-----------+-+----+-++-----------++--+-+--+-+---+------++-+-----+-++-+----+--+-+--++-+-++++-+--------+-++----+--+-------+-+-+++++++--+---
-+---++----+-+++----++-+-+---++--+++--++++-----+++----+-----+--+------++-----+++-----++-----+++-+------+---+---+++--------++-++--+-++++--------+---+++
---+-+-+++----+-+--++++++----++-----++------+--+++-++++-+--+++---++----+-+-+-+-+-+---+-----+-++--+------+-++-++-+---+-++++-+--+--------++--+---+----++
----+---+-+--+-+--+++--+-----+--+-++------+---+-+----+---------------+---+-+--+--+----------+--+-+--++-++-++---+-------+--+-+--+----+-----+--+-+--+-+-
------+++--+--+-----+------+--+--+--+---+-+---------+---+---+-+-+++-+----+------+-----------+------+-+--+-+++++-+--++-+-+----+----+---+++--+-----+--+-
+---+---+-------------++-+-++++-------+++----+---+--+-+-----+++--+-----+-+---++--+-+-++++----+++++-+-+-++-----+++--+--++---+-----+--+--++--+--------+-
-----+-----+++-+----+++-+----------+--+-++-+------++-------+-------+-+--+--+-------+-+++------+----++-++-++---+--+---+---------+-+-+--++-+---+-++-----
++--------+--+++-------+-+++------+--+------++------+++-+----++-+-+-+----+-+----+-++++--+-+-+------+++--+----++++---+--+--+++++-++-+---+--+-++-+-----+
+-++------+-----++++---+-+-----++------+-+--+-------++--+---+--+--+--+---+--------+----++-+---+--+-----++---+++---+-++--+-------++++-+-----------+++--
+-----+++---+++-------++-+----+--+-+-++--+----+-----+-----++--+----------------+-----+--+----+-+---+---+++--+----++---++++----+----+-+++---+-++--+----
+-+-----+--+++-++++-+++-+--++--+-----+----+-++++---++--+--+-++++-++---++--+------+--+---++-----+--++-+++-++---++--++--+-+-----++---+---+----+---++-+++
---++--+----+-++--+--+-++-++-------+-+--++---++--+----+-----+----++-----++--++--++-+-+-+-+-++------+--+---+--+----+-+------+--+++--++--+----+-+---+---
+-----+--+---+++----+-+-----+---------+-+--++---++--+-----+-+-+-----+---+-+-+++-------+-------+++---+-----+-+---+-+-++-----+--+++----++-------+++---+-
+-+---+-++-++---+--+--+--+---++++--++-+-----+++-+-----------+-+------++-------+--+---+--+--+---+++----+++-----+++--+-+------+-+++--+---+++--+------+--
++-----+----++----------+-----+-+---------+---+---------+-++----++-+--+---------++----------+-+-------------+----++------+---++---+----++-----+----++-
------+--+-------++--+-+-----+--++----+---++-+-----+-+-++--+--------+-+-+--++-----------+----+--++----+++----+---+--+-+-+------+-++-+--------+-----+-+
--+------+-+--+---+--++-+--------++-+-++----++--+-+-+--++---+---++----++----+----+-----+----+-+-+-----+-+---+-------++--+++-++--+-----+-++-+----------
+---+-+--++--+-++--++--+---+---+---+--+-+---------++-----------+--++--------+---------+----+---+-+--+----+-+-+-+-+--++---+----+--+--+++--++--+-----++-
-+-+++------+-+++---+--+--++++++++++---+--+-------+-++-+--++-+---++-++-++-+++-+-+---+--+---+++++++++---+--+----+--+--+-++----+---++----+++--+-+++---+-
---+-+-----++---------+-+--+---+-+-----+-+-+-+++-+--++--++---+---+--+++--++-+++-+--++--++--+------++--+-----+-+----+---++--+---+---+----+--+-+-+------
++---+++----+++--+---+--+---+-+----+--+-++--+---+--+++---++-++----+---+--+-+--+---+--+-++--------++-+-++----+--+---++--++---++--+------+----+-+-+-----
+--++-+-+--++----+-++---+----++-+----+++++---+---+--+-+-++-------++-+++--+-------+---+-+-----+--++-+----+-++-+--------+----+---+----+-+-+--++--+----+-
-+-++-+---------+---+-----+---+-+-----+----------+-------+---++-+------+++--------+-+---+-----+-----+-----+---+----+------++----++----+---------+-----
++---++------++------+--+------+++----+-+--+---+---+-+--++--+-+++-------+-------+--+--------+--++--+-+---+----+-+------+-+--+++------++------+++------
----+-----+--++-------+-------------------+-+---+--+++--+-----+++----+--------+-+---+-+-----+--++-----+-+---+---++--+---+-+-+-+++---+---+---+-++------
-++-----++--+---++---++--+-+----+--++-+------+-++-+-------++--------+--+----+-+---+--+-++-++----+--+-+--++--+++--+---+----+----+--+--++--+--++---+---+
++++--+----+----+++-+---++-----+--++-+++-++---++--++--+-----+++++-+-----+---++--++--++--+--++--+-----+-+--+-++++----++++--+--++++--+-+++-++----+---++-
++-+---+--+--+-++----+--+----+--+--+-+-+++-+----+++----+-+--+-+-+--++--+----+++-+---+-+----+--+-++-+-++--+----+----++-+---++----+--++--+-------+----+-
--+--++--+---++---+----+------+--------+---++++--++-++------+---++-+-+----+-----++++-----+-----++-----+--+--+--+----+--++-+---++-----+-----+--+---+--+
+---+---+++-----+-+-+---+++-+---+--+++--+----++++---+-----+-+++-++-+------+-++++-+-------+-+---++-+--+-----++-+++-+-++--+-----+++---+--+++-+----+-++++
---+-----+-++-----++-++-+--+------+---+-+++------+++------+----+-----+-+-+++-+-+++----++--+++------+-++--+-+-------+-----+--------++-+--+------------+
++---++++----++--+-+-+++++---++-+++--+-++-----+--+----++--------+---+--++-----+--+--+--+-+-------+--+--++---+----+----+-----+++------+---+---+++---+--
--+---+-------------+-+------------+-+-----+--+-+--++-+-+--+-----+----+++--+--+-----+--++--+-----+--+-+-+-+---------+--++-----+++++-+----+------+----+
--------++----+-++--+---+--++-++-+--++-+--+++--+-----++---+----+----+---+-+--+-+--+++---+----+--+-+++---+----++-+-+--+++-----+----+--+-++----+------+-
-+-+---+++-+-++----------+---+++-+----+-+-++-++-------++++-+--+------+-++-------+---++-++----+------++-+-----+++-+-++++-+---+++---+----+---+--++-----+
--+--++++----+++-+---++-+---+++-+--+---+---+-+-+++-+----+-++--+-++--+++-----++++---+++-+++---+----+--+++-+-+--+++++--------++--+-+----------+++++----+
----++++-------++-----++--+-+--+----++++----------+--+--+----+------++-+++-++--+--------+-+---+--+-----+----------+----+-++--+-----+-+++-++----++-+--+
-++++-----+-----+--+---+-+++-+--+++---------+----+-+++--+--+-----++-+++---++------+--+-+-----+---+-++++-+-+++-------+--++--++++-----+-----++-+----+++-
--++-------+-------+------++-+-----+---+-+++----+-+------++----+----++-+-+----+---++-+-+-----+-+-+------+--+-+---+-+-------+-----++------------+------
+----+++---+-+-+---+-----+++-+++++---+---++--+-+---------+-----+------+----------+-++-+-++-----+++-+-----+--+------++--------+-+--+-++++-----++--+-+--
+-------+---+-----+++------+++------++--+--++++----+--+-+--++----+-+--++--------+---+---+-+-+-+---++--+--++---+-+-+-+--+-+----+-+---+-+++-----+++++---
---+-++-+-------++----++-+------+--+---+-----++-+-+---+-------+++------++---+--++---------+++++-+-+----++---+++---------+++----+-----++-+---+---------
-----+-+-------+---+-----+----++++---+--------+----+--+-++------++-----------+--+--------------++---++-----+++--+-----++-+------+------+-+-+-+-+------
-----++-++----++----++---+----++-+----+----+++-+---------+---------+-++----+++-+-+++-----+-+-----+----+-+++---+----+----+--+---++----++-------------++
-++-+----+--++-----++-----+--+-----++-++--+-++-+-------+--+-++-++++-+--+-------+--------+-+----+------------+--++++----------+-+--+-++--++----+--+-+++
--+--+++--+++---+-+-++---++----+++-+-++-+-+++--+-+-+-+---+-+++---+++------+-+--+--+-+---+++-----+----+---+--+---+--++-++++-+----+-+--+-++-------+-++++
-++--+----+--------+-++-+--+--++-----++------+---+-------+-------------+----++-+-+-+---+-+-+--++-----++--+-+------+--+-------+----+-------+---+------+
-------+---++--+---++---++-+-++-+++--+++----+----+--+--+-+---+-------+--------+-++---+-+++-++---+-----++---+---++-++-+----+-+---+----+-+--++-----+--+-
+----+----+++---+---+-++--+++-++-----+------++-++-+-+--+-+---+-+-+-----+-+-+-+--+++--------+++-++++--++---+---+---+---+-+++-++-+-----++---+--+--+++-+-
-+-++----+-+-+-+------+--+-----++-------+--++-+-----+-++----------------+-------+----+-+--+--+++----+---+------+++---+--+-----+-++--------------+---+-
------+--+----+--+---+-----------------+-+-------+-----++--------+--------------------+-+--------------+----+---+------------+---+-++---------+--+-+--
++----+-+----+--+---+-+-++-+--+--+---+-+++-++-+-----++++---+--+--------+-++---++--++-+---++--++------+++--+--++--+-+-++++----+--++-+---+-----+---+--+-
+---++-+--+++---+++---++--+---+++-++-+-+----+++++-++-+---+-----------+-+-+++--+++-+-------+++--++++-+--++-+-------+-+----++---+-+----+-+--+++-----+-++
+-+-+-----+--+-+-+------++-+-++-+-+--+++------+-+-+-+--+-+-+-++-----++-+--+-+---+++-++-+----+---++------+----+-+-+------+++-+--+++-+--++--+---+-----+-
----+----++-++--+--+-++-------+-+----+++-----+---+---+-+-++------+---+------++---+-++-++++-+--++------++++-+--+---++++----++-+--------+------------+-+
--+-+--+++-+----+-++++--++--+--+----++-+++--+--+-+--++++---+++---+-----------+-+-------++----++------+--++++--++-+++-+++--++-++----------+---++-+-+-+-
-++--+--+----+++--+++---+------+----+-++--+++--+-----+-+-++---+-++--+-+--+-----+--+-+--++----+-------+++-----++---+--++-----++++++---+---+---+-+-----+
---+-++-----+-+--+--+++++----+++------------+-----++-+---+-----+---------+--++-+---+-------+-+-+-+----++-+---+--+--------+----+-+---+-+-+------+------
+----+++-++--+++-++---+------++-++------+-----++++-+--+--+-----++-------+----+++------+-------+---------+--+++-++---+---++--+---+-----++---+++-+------
+----++-++--+------+--+--+------++------------+++-++--+------+--------+-----+-++-+-----------+++--+--++-+----+-+--+--+--++-+---+-----++-++--+---+--+--
+----++-----------++----+-+++---+--+-++-+-----+----+-+--+--+-+---+-+--+---------+-+-+-+-+++-+-----++-----++-+-----+---+--+----+-++----+---------++++--
--+-+--+-++--------------+---+++++-+-++++-++-+-+---+--+-+--+----+-----+--+--+--++---+---++----+----+-+--+---+----+--++-+-------+-++-+-------++++-+-+-+
--++++-----+---------+--+--+-+-+--+---+--+---+----+----++--------+--++-+-+--+++-----++-+----+-++-+-+-+++----+----+--------+-+------+--+----+--++-+----
-+-+-----+--+---+--++--++-++-+-+++------+-----+----+++--++-----+---+-++--------+--+--+-------+-+-+-+-----+-+--+-++++-+---+-+-++-++--+-+----+----+-+-++
-+--++----+-++-++-----------++-+++--+-+--++-------++++++++---+---+---+++++++-++---+-------+-+++--+++-+--------------+++++-----------++-++---+---+-+---
-------------+++-----+++---+++--+----+-+--+--+-+++------------------+++----+-----+-+++-+++---+---+-+--++-+-------+----+--------+------++----+-+------+
-++---+--++--+++-++--+----++----++----++++++--+------+++++-+--+---------++-+--+-----++++-----++--+--++-+----++--++-++++-+--+++-+--+-+------+---+-+----
-----+--++-+--+---------+---+-+--+--++-+--++-----+-----+--+----+----+-+---+--+-+--+-+--+--+--+-+--+-------+-----+----+++--------+----+---+-+--+--+--+-
-++-------------+---+---+--++------+----+---++-----+--+++----+---+----+++--+--------+------+--+-++--++----+----+----+---+--++-+-+++-+----+------+-----
-++--+---++--+---+----++++-----+++---+-++------++--+--+-------------+---+--------+----+-+--+-++-+---+++-+--+-+--++---++--+--+++--+--+--+-+-++++--+--++
---+++--+--+-+-----+-++-------+-+--++-++-+----++++---+---++-----++----------++-++---+-+-+--+-+-+---+--+-++-+-+----+-+--+---+--+----+-+--++----+----+-+
+++---+--+-+-----++---------+---+--+++-+-------++---+--+---+-++-+---------+--+-+-+---+-----+-+----+------+---+---+---++-+-----+---+-+----+------+-+-+-
--+--+---++----+--+--+-+++----++-++--+-+++-++++--++-+---+--+--+----+-------------++++--+-+++-------------+-+++-+----++--++--++-++-+-++---+--------+-+-
----+--+-------------+--+------+-------+++--+-----+--+-+++----+------+-------++--+------------+--+---+---+----+-----+------+--+-----+--+-+-----+------
-++----+--+----+-+-++----+-----+--++---++++-++++-+++--+-+----+++---+--------+----++++++-++-++--------+---+---++----+++---++-+++---+--+++-++--+-+---+--
--+-----+-------++-+-+-----++---+--+--++-++--+----+-+------+---+---++--+----+--+--+-------+---+------+--++---++--+---++-+---+----++--+-----------+-+-+
+---+---+-+--++----+-++-------+-+--++---+-+----+++---+--------+-+-----+--+---+++----+-------++--+-----+++--+++---+-++--+--+-+-+---++++--+---+++-------
-++----------++---+-----+-+---++++---++++-----+-+--+-++-----+-+-+-----+++--++------+--+------++-+--++-+-+-----+-+-----------+-+-----+++----++-------+-
++++--+---------+---+---+---+-+----+----+---+----+-----++----++--+-----++--++------+----+-----+-+----+----+---++----------++----+---------------++----
+-----++-+-+--+---------+----+-------+-+----++-------+--+------+-------------+-------+++-+---+-+--+---+---++-------+-+-+---+--------+++----++---------
-++-------+-+----++-------+-++--++----+-+-+-+------+-+--+---+---+-------++-+----------++---------+-++-+-----++---+--++-++----+--+---+-------+----+---+
--+---------+--------++----+---+-+--++----++-+-+-+--++----+------+--+-+--++--+---+-++--+++---------+--+----+---+---+-------------+-+--------+----+----
-+--+---++--+-------+--+--++++--+++++--+--+-----+---+---++---+---+-+---++++++-+++---+-----+-+++++--+++----++---+-----+-+--++-+----+-+----+++-++------+
+-----+--++-+++++--+-+-++----+-+-+++--+-----+-+----+---+-+-+---+---+-++----+-+-+-------------+-+-+-----+-+---++--+--++---+---+--+-----+--++-+---++--++
-++-+++--+-+-++---+--+--+--+-+----+---+--+-----+-+-----+++------+----+-+----++--++---+--+---+-+-+--+-++--+--+--+---+++---+-++--------++---++-++-----++
-++-+-+--++--+---++--+++-+------++-+--+-+-++-++---+---++---+--+++--++-+-+--++--+---++---+----++-+----++-+----+---+--+-++-+-------++-+++----++----+-+-+
+----+--+---------+-----+--++-+-----------++--+----+------++-+---+-++-+---------+--++---+-+-----------+----+----++-------+----+---------++--------+++-
+----++-----+--+---+--+-++--+--+---+++------++--+------++----++--+---++------+-+-+--------+--+-+-----++----+---+---+-+--++--+-+++---------------+-----
----------++---++-+-+----------++-------+-------++--+---+-+----++---+---------++-------------+-+--------+---+++-+--++----+--+---+---+-------++-++-----
----+-------+-+--+------+-++-++----+-+--++--+++---+--+-------+-+--+--++--+--+----+---+-----+-------+--++-----+-++-+----+---+--------+--+-+--+----++-+-
+++-----+---+---+-+-++-++--++--+-----+-+----+++------++-+-++-++-+----++--+-+---+--+++----+---+----++-++--+--++++--+---++----+-++--+--+--+--------+----
+-+-++++++--+++-+--+++++-+-+--+-++----+--+----++-+-++-+---++-+--++-++--+-----+-+----+--++----+-+--------++-+-----++----+-+--+-+----+++++-+----+-+---+-
-+---+---++-++--++++-+----------+-----+-----+---++-----++++---+------++--+---++--++--+++++----+--------++--+-++--++-++------++--+-++-++-----++--+--+--
+-++++----+-+-++-+----+--+-+--+++-+--+----+++-+++-+-++----+---+++---+--+--+-----+-+-+--++++-+---++-+++--+----+++-+--+---+-+-++++-+--------+-+++----+--
----+--+-+++++--++----+++-++---------++-++-++------+-+---+---------+-----+-++---+-+--+----------+-++----+++-------+-----+++----------+-+-+++----+-+--+
--------+----+--++--+--+-+-+----+---+--++---+---++--+-+------++++----++------+++---+--+------++---+----+------+--+----+++--------+--+--++-----+--+--+-
-+-+--+-+--+--+----+---+++-+----------+-+-+------------++---+--+--+---+-------------++++-----------+--+----++-+-----++--+--+-+---+--+-+-+--+--+-----++
----+---++----++--+++----++--+-++-+++-+------++-+----+++-----+---------+-----+--+---+-+-------++----++-++-+----+-----+----+---++----+----++-+--+--+++-
+----+++++--+---+-------+----+-++--+-+-+----+++--+++-++++----++----+---+--------++-----+-+-+-+++++---++---+--+++------++++-+--++-------+--------+----+
-+----+----+++++---+---++--+------+--+---+-+-++++++----+++-++--+-+---+--+---+++-++---+-+----+++-+--+-------+---+++-+------++--++++---+++--+-++-+---+++
-+-------+--+--+-----+--+++---+-----+--++-----------+--+++-----------+++--+--+++++---+-+-++-++--+--+-+++-------+--+-++--+-----------+---+-++-++-----+-
--+++-+--++-------+----+-+---++--+-++++-+-+++-----+-+--++--+++--+-+-+-----+------+-+-----+++-+-++++------+--+---++-+++-+-+------+++-+-++--++------+--+
-+--++---+--+-+----+-+-+---+-+-+++--+---+-++-+---+-+------+++----++---------------------+-+--+---------+--------+++-------+--+-+-+--+----+----+---++++
-----++----------+--+++--+-----+++-------+-++------+---++-----++------+----+-+-----+-----+++--+--+---++--++--+-+---+-----------++-----+--+---------++-
+--+--++---+--+-++-+--+-+++---+--+++------+---+-+-+---++------+-++-----++---+-++--+-+------+++------+++-+---+------++---++--+-+----+--++------+-+---+-
+-----+-+---+-+-+++---++--+++-+---+--+-++---+++---+-----++-----+---+-++-+-----+--+----++--++--+-----++-+-----+----+------------+-----+-++---+--+-++---
++------+---+-+++---+------+++--+---++--+-------+---+-++++------+--+--++---+---+++----+-++----++-+-+-+--------+-+--+--+-++-----+++-----+-----+--------
-----++----+---+--++-+---+----+------++-+++--+-+---+-+--+------+-----++--+----------++--++------------+----+++---------+-+----++--++-++----+------++--
-++-+--+-----+---++-+---+-++-+-+-+----+----------++--+----+--+------+----+--+-+----+++-+++++--+-+--++--++-++-+-+----------++-+--+-+--+------------+-+-
-++-------+-++-+-++++-+-++++-+--++---+---+--+---+--++--++++++---+-+--++++++-+---+-+-+--+-++-----++-+-++-+-+++------+-+-+++-++-----++------+-++-----++-
-------+--+--+---+-----+-++----+---+-++--+-+------+-++-------+---+---+----+---+------+--+-----++--+---------------+------------------+++----++++++-+-+
-----+-------++--+---+-+++--++--+--+--+----+---++-++---------+-+------++---+++-+---++--+++-+----+-+--+-----++-++-++----+-+-+++---+---+------+-+-++---+
-+----++----+---+++------+----+++++--++-------+---+---+-++----+++----+++-++-+---+---+-----+----+---+-+------++-+++++++++-----+++------++---+++--++----
--------+-----+-+-----+---+---++----++--+-+----+++---+----++--+--+--+----+-+---+--++--+--+--++-++-++--------+++-----+--+-----+------+--------++-+----+
--+---++------------+++++----------+---+----+--------+--+----+---+-++-+-+--+--+----+-+--++-+--+---------+--+---+-+------+---+---++-----+--------------
+------+--+--+++--+--++---+---+----+---+--+---+--+----+++----+--++-----++----+---+--+---+--+--+--+---+--+--++-------+++----+--++-----++--++---++------
-----+---+-+--+++-+--+---+-+--+++---+--++----++---+-+--+-++---+-----++-+-++++---+-+--+-++-+------++--+-++---+-----++++-------------+++----+++---+-+---
+---++-+--+-+-+-+++++--+-+--+-+-++-+-+--+----+-+-++-+---+++-+-+++-+++-----+---+--+------++-+--+++-+--++------++++-+-+------+-+++----+--+--+++---+-+-++
----++-+-+---+---++-----++----+---------++-+-++--++-++---+---+--------+--+--++--+--+-+----------+-----++--+------+-----++++---+--+--+++------++--+-+++
-+-+----+----+-+-----+-+-----+++-----+--++++--+--+++-++++-+-+-+---+-++-++----++-+-++++-+++--+-+-------+-++----++-+-+-+----++-+---+--+----------+----++
+---+++--+-----+--++---++++--+----+---++-+---++---+---+-----+++--++--+--+----+---------++--+-----------+----+++++----+++--+--++-+-----+--+-----+--+---
---------+--+-----+--+-----+---+-+----++-+---+--+-+------+---------++-+-----+----+----+++-++-+-----+++--+---+-----+--+------+--+-----++--+---+-+-+----
+---+-+-------++------+------++---------+---++-+----+---++--+-+--------+--+++++++-+---+------++++-----+-+-----+-+--+----++------+---+--------+-+------
-+----++----+--+-++--+-----+-+-+--+--++-+--+---+--+--+--++----+++----++-+---+------+--+--+------+--++----+------+--+---+-----+--------++-----+++-++---
-+-++-+----+----+---+-+-+-----+---++--+----++------------+----+-+----++-+---------++----+++++------+-------+--+----+-------+++-----+--+---------+-+++-
+--+----++--+--++--++-+-++-+-++------+--+---++---+--++-+--+-+----++-+-+--++-+------+-+-+-+---+++++-+--+++-++-+-----+-++++--+---++---+-++----+-++----+-
-----+++----++++-+---+--+---+----+-+-++--+--+--+-+-+-+---++++----+--+++----+--+------+--+--+-+++--+---+--+------+------++-------++---+++-+--++--+----+
---+-++----+---++-+----------+-+-+-+--++-+-+--+-+++-++---+-+-++--+----+--+--++-+++--++-++-+-++-++++---+-+---+--+---+---+-+----++---+--+------+-+------
-+---+++++++--+-----++----+-+++----+-+----+---------+++---+--+------++-------+--+------+--+-----+++++---+-+---------+----+---+---+-----++++++++++-+---
-+--+-----+--+---+-++--++++--+---+-+---+-+-------+----------+---------------+-+------+-----+----+----+----++-+--+---------+--+---+---+---+-------+-+++
+-----+-++-+--------++++-----++--+-++--+----++--++--++------++-+--+-+-+---+----+-++--+----++--+-++----+-+-+-+--+-----+++++-+---++-------++-+---------+
----+--------+------+-++-+---+-+--+-------------+--+-+-+--------+----++-++-+--+------------+--------++-+----+---------++--------------+---+--+-+--+--+
-+----+++--+------+---+----+----+-+--++---+---++--------+--+++--+++-------------+---+---+--++------+----+---+----+-----++----++--+-----++--++-------+-
+-------+--+--+--+----+-+----++-+---+-+-+----+--++----------++---++-++---+++++----+++--+++-+----++---+--+-----+++--+--+-----+-++----+-+-+---+-++------
+---+-+--+---+++------+-+-++-++-+------+++-+-+---+-++-++--+---+----+++--+----++----+-+--------+-+--++--+-++---++++---+--++------++--+--------+-++-----
+--+------+-+--+-+---+-----+--+---+------+---++--+-+-++-+---+-+--++------+-------+++-+------+---+------+--+--+------+-++---+---+----+--+-------+--+---
---+--+-----++---+++++++-+-+++-------+---+-+++------++---+--++----+--+-+-++----+--------++-----+--++---++++-+++++++++--++----+++---+-------------++++-
